<?xml version="1.0" encoding="utf-8"?>
<!-- Generator: Adobe Illustrator 17.1.0, SVG Export Plug-In . SVG Version: 6.00 Build 0)  -->
<!DOCTYPE svg PUBLIC "-//W3C//DTD SVG 1.1//EN" "http://www.w3.org/Graphics/SVG/1.1/DTD/svg11.dtd">
<svg version="1.1" id="Layer_1" focusable="false" xmlns="http://www.w3.org/2000/svg" xmlns:xlink="http://www.w3.org/1999/xlink"
	 x="0px" y="0px" viewBox="950 473 20 14" enable-background="new 950 473 20 14" xml:space="preserve">
<path fill="#8C8989" d="M959.2,485.7l-8.8-8.8c-0.4-0.4-0.4-1.1,0-1.5l1-1c0.4-0.4,1.1-0.4,1.5,0l7,7l7-7c0.4-0.4,1.1-0.4,1.5,0l1,1
	c0.4,0.4,0.4,1.1,0,1.5l-8.8,8.8C960.3,486.1,959.7,486.1,959.2,485.7L959.2,485.7z"/>
</svg>
